<svg width="211" height="209" viewBox="0 0 211 209" fill="none" xmlns="http://www.w3.org/2000/svg">
<rect width="211" height="209" rx="104.5" fill="#FFBED7"/>
<path d="M124.375 100.1C122.675 91.475 115.1 85 106 85C98.775 85 92.5 89.1 89.375 95.1C81.85 95.9 76 102.275 76 110C76 118.275 82.725 125 91 125H123.5C130.4 125 136 119.4 136 112.5C136 105.9 130.875 100.55 124.375 100.1ZM111 107.5V117.5H101V107.5H93.5L106 95L118.5 107.5H111Z" fill="white"/>
</svg>
